311,QWZvbnNvIFJhdWg=,1989-09-04,7657497232
320,Q2FybGEgRmVybmFuZGEgUmFtYWxobyBNYXRldXM=,1968-07-12,7600134710
713,Q3Jpc3RpYW5lIGRvcyBTYW50b3MgR2FyaWdsaW8gUGluaGVpcm8=,1983-09-07,7657487733
1924,U3IuIE1hZHJ1Z2E=,1985-07-31,7656559846
1925,U3IuIE1hZHJ1Z2EgSG9t,1974-01-05,7656559972
1927,RG9uYSBGbG9yaW5kYQ==,1992-02-09,7656559985
1929,QW5hIEx1aXph,1992-09-09,7656560051
1931,VGVuZGFqaSBEdWJha3U=,1992-09-03,7656560109
1949,VGVzdGUgQWdlbmRhbWVudG8gVHLDqnM=,1990-12-01,7656561761
1954,QW5hIGRlIE9saXZlaXJhIExpbWE=,1926-08-19,1224271969
1975,QmxhIEJsaXMgQmx1,1990-11-15,7656561965
1976,U2ltIFNhbGFiaW4=,1990-11-15,7656562708
1977,VGVzdGUgQ2FkYXN0cm8gVGVsZWZvbmU=,2000-12-27,7656563048
1979,UmFpbXVuZG8gSmFja3NvbiBGcmFuY28gZG8gTmFzY2ltZW50bw==,1929-12-10,127050
1988,QW5kcmUgUG9jeXMgZGUgQ2FzdHJvIENhYnJhbA==,2014-11-16,26000916415
1991,QmFyYmFyYSBBbHZlcyBkZSBCcml0byBTb2xlZGFkZQ==,2000-11-23,7720000093
2011,V2FsbGFjZSBTYWxnYWRvIGRlIE9saXZlaXJh,1970-05-15,1213044139
2014,UmFpbXVuZG8gSmFja3NvbiBGcmFuY28gZG8gTmFzY2ltZW50bw==,1980-10-25,1906
2018,UmFpbXVuZG8gRmVycmVpcmEgZG8gTmFzY2ltZW50bw==,1929-12-10,121400
2019,SWFnbyBBcnRodXIgQWxtZWlkYQ==,1985-02-22,7656565786
2039,UmF5c3NhIE1hcnRpbnMgTmFzY2ltZW50byBkb3MgUmVpcw==,1994-11-23,176748
2042,SXNhZG9yYSBEaWFzIEFsYnVxdWVycXVl,2008-06-26,7656574381
2043,TGl2aWEgQW5hbHl0aWNz,1988-05-26,7656558820
2045,UmF5c3NhIEFsbWVpZGEgZGEgU2lsdmE=,1999-03-04,95002686
2059,RWR1YXJkbyBSb2NoYSBHb25jYWx2ZXM=,1965-07-25,7656577252
2061,RG91Z2xhcyBBemV2ZWRvIFNpbHZh,1983-09-25,7656577363
2068,UGF1bG8gRW56byBGZXJuYW5kZXM=,1996-12-13,7656577486
2072,RGF2aSBLYWlxdWUgRmVybmFuZG8gQ2FzdHJv,1975-09-20,7656577490
2074,R3VzdGF2byBIZW5yeSBGcmVpdGFz,1996-08-11,7656577505
2077,THVhbmEgQmlhbmNhIENhdmFsY2FudGk=,1994-12-07,7656577508
2079,TGV0w61jaWEgSGVsb2lzYSBQZXJlaXJh,1994-10-15,7656577510
2080,TGF1cmEgU2FyYWggZG9zIFNhbnRvcw==,1994-10-05,7656577525
2081,UmFxdWVsIExhcmEgQmlhbmNhIEZyZWl0YXM=,1994-04-17,7656577526
2082,QWdhdGhhIENhbWlsYSBNZW5kZXM=,1994-06-22,7656577527
2085,SGVsb2lzYSBBbMOtY2lhIE1vdXJh,1994-03-25,7656577530
2087,TGF2w61uaWEgQ2F0YXJpbmEgQmVhdHJpeiBNZW5kZXM=,1994-09-26,7656577532
2089,TWFyY29zIFZpbmljaXVzIEZyYW5jaXNjbyBIZWl0b3IgRnJlaXRhcw==,1990-05-17,7656577534
2091,VmluaWNpdXMgTGVvbmFyZG8gQ2FtcG9z,1990-11-01,7656577536
2092,TWF0aGV1cyBBcnRodXIgQWxtZWlkYQ==,1990-05-26,7656577537
2094,R2FicmllbCBFcmljayBTb3V6YQ==,1987-11-10,7656577546
2096,WXVyaSBUaGlhZ28gUmliZWlybw==,1987-12-20,7656577548
2097,SGVucmlxdWUgUm9kcmlnbyBBbGV4YW5kcmUgUm9kcmlndWVz,1987-04-03,7656577549
2101,Tmljb2xhcyBMdWNjYSBTYW11ZWwgZGUgUGF1bGE=,1996-08-18,7656577566
2102,R3VpbGhlcm1lIEFsbWVpZGEgQmFycm9z,1940-03-10,7656578065
2110,TWFyaWFuYSBDdW5oYSBDYXJ2YWxobw==,1974-01-05,7656578309
2111,Q2Vjw61saWEgQsOhcmJhcmEgSGVsb2lzYSBCYXJyb3M=,1945-01-18,7656578310
2123,S2F1YW4gZGUgTGltYSBOdW5lcyBOZXRv,2003-12-22,7850563
2135,SGVsZW5hIE1pbGVuYSBNb3VyYQ==,1974-12-02,7656579134
2161,Tm92byB0ZXN0ZSBkbyBzZXUgY29tcG9uZW50ZQ==,1980-12-16,7656584299
2168,VGVzdGUgUWE=,1992-09-08,7656584086
2171,TWFyY29zIFNhbnRpbmk=,1988-02-23,7656584390
2175,TWFyaWEgQWxtZWlkYSBGZXJyZWlyYQ==,1973-06-01,7656584407
2189,QW50b25pbyBDYXJsb3MgRGUgQWxtZWlkYSBKci4=,1963-02-02,7656584530
2209,QW50b25pbyBDYXJsb3MgRGUgQWxtZWlkYSBKci4=,1986-02-23,7656584566
2210,Q29kaWdvcGFjaWVudGUgQ29kaWdvcGFjaWVudGU=,2000-01-01,7656584568
2211,TWFyaWEgR2xvcmlhIENvdXRpbmhvIERhaWhh,1940-12-30,18976
2214,QWxlIE1vcnl0YSBTdWVtYXNp,1986-05-23,7656579886
2218,UGVkcm8gSGVucmlxdWUgVml0b3IgSWFuIE1vdXJh,1987-05-05,7656584647
2220,Tm92byB0ZXN0ZSBkZSBsb2NrIHdpdGhOb0xvY2s=,1981-12-19,7656584651
2222,Tm92byB0ZXN0ZSBsb2NhbA==,1980-01-12,7656584653
2225,VGVzdGUgQ29tIEVzcGHDp29zIEJyYW5jbw==,1986-05-23,7656584660
2233,UGFjaWVudGUgQ29tIEVzcGHDp28gQnJhbmNvcyBEb2lz,1986-05-23,7656584685
2235,UGFjaWVudGUgQ29tIEVzcGHDp28gRW0gQnJhbmNvIFRyZXM=,1986-05-23,7656584686
2240,QXVndXN0byBSZW5hbiBFbWFudWVsIE1vdXJh,1996-12-21,7656584736
2242,TWFyaWFuYSBBbWFyYWwgR29tZXM=,1974-12-12,7656584758
2248,QW50aG9ueSBSb2NoYQ==,1996-03-17,7656584868
2257,SXNhYmVsYSBHb21lcyBUZWl4ZWlyYQ==,1989-08-27,7656584945
2261,Sm9hbmEgU2lsdmE=,1988-01-29,7656584966
2266,TWlndWVsIEVsaWFzIEJhcnJvcw==,1996-04-18,7656584989
2276,SGVucmlxdWUgTGVvbmFyZG8=,1996-01-02,7656585066
2278,T3TDoXZpbyBDYXJ2YWxobw==,1996-04-01,7656585086
2280,RXJpY2sgVGhpYWdvIENhdmFsY2FudGk=,1996-01-02,7656585106
2290,TXVyaWxvIE1hcnRpbnM=,1996-04-09,7656585172
2300,U3RlbGxhIE1hcmlhaCBJc2FiZWxsZSBNYXJpYW5v,1985-02-11,7656585566
2310,TWF1cmljaW8gSGVybW9nZW5lcyBOb2d1ZWlyYQ==,1957-04-19,7600135159
2311,QWxleGFuZHJlIERhdmkgQ2FsZWJlIENhc3Rybw==,1995-04-10,7656585585
2315,UmFwaGFlbCBTb3VzYQ==,1982-07-31,7656585942
2316,SXJpbmV1IFZvY8OqIE7Do28gU2FiZSBOZW0gRXU=,1984-02-28,7656585969